<?xml version="1.0" encoding="utf-8"?>
<svg version="1.1" xmlns="http://www.w3.org/2000/svg" xmlns:xlink="http://www.w3.org/1999/xlink" height="14.70003399999996" width="24.000020000000404">
  <defs>
    <path id="path-0" opacity="1" fill-rule="evenodd" d="M13.680000455999512,0 L5.760000191999552,5.145011899999986 L5.760000191999552,9.555022099999974 L13.680000455999512,14.70003399999996 L13.680000455999512,0Z"/>
    <path id="path-1" opacity="1" fill-rule="evenodd" d="M17.720000623999624,2.793012340013549 C17.720000623999624,2.793012340013549 21.92003436400141,7.203042140058881 17.720000623999624,12.936080880117812 "/>
    <path id="path-2" opacity="1" fill-rule="evenodd" d="M20.60000071999963,0.6615044700067774 C20.60000071999963,0.6615044700067774 26.000044100001368,6.477602322174798 20.60000071999963,14.038529529993225 "/>
    <path id="path-3" opacity="1" fill-rule="evenodd" d="M14.840000527999425,4.41001019999999 C14.840000527999425,4.41001019999999 17.540022218000168,7.0943761652449755 14.840000527999425,10.584051920063455 "/>
    <rect id="rect-4" opacity="1" x="0" y="4.410010199999988" width="4.3200001439999784" height="5.880013599999999"/>
    <mask id="mask-5" maskUnits="userSpaceOnUse" maskContentUnits="userSpaceOnUse">
      <rect opacity="1" x="0" y="0" width="24.000020000000404" height="14.70003399999996" fill="black"/>
      <use xlink:href="#rect-4" fill="white"/>
    </mask>
  </defs>
  <g opacity="1">
    <g opacity="1">
      <g opacity="1">
        <use xlink:href="#path-0" fill-opacity="0" stroke="rgb(74,19,74)" stroke-opacity="1" stroke-width="1" stroke-linecap="butt" stroke-linejoin="miter"/>
      </g>
      <g opacity="1">
        <use xlink:href="#path-1" fill-opacity="0" stroke="rgb(74,19,74)" stroke-opacity="1" stroke-width="1" stroke-linecap="butt" stroke-linejoin="miter"/>
      </g>
      <g opacity="1">
        <use xlink:href="#path-2" fill-opacity="0" stroke="rgb(74,19,74)" stroke-opacity="1" stroke-width="1" stroke-linecap="butt" stroke-linejoin="miter"/>
      </g>
      <g opacity="1">
        <use xlink:href="#path-3" fill-opacity="0" stroke="rgb(74,19,74)" stroke-opacity="1" stroke-width="1" stroke-linecap="butt" stroke-linejoin="miter"/>
      </g>
      <g opacity="1">
        <use xlink:href="#rect-4" fill-opacity="0" stroke="rgb(74,19,74)" stroke-opacity="1" stroke-width="2" stroke-linecap="butt" stroke-linejoin="miter" mask="url(#mask-5)"/>
      </g>
    </g>
  </g>
</svg>