<?xml version="1.0" encoding="utf-8"?>
<svg version="1.1" xmlns="http://www.w3.org/2000/svg" xmlns:xlink="http://www.w3.org/1999/xlink" height="27.526907277780367" width="31.409260218956888">
  <defs>
    <path id="path-0" opacity="1" fill-rule="evenodd" d="M15.739323584739708,4.704630109478444 L15.739323584739708,11.894172593138569 "/>
    <path id="path-1" opacity="1" fill-rule="evenodd" d="M4.704630109478444,12.469335991831343 L4.704630109478444,22.822277168301927 L26.704630109478437,22.822277168301927 L26.704630109478437,12.469335991831343 "/>
    <path id="path-2" opacity="1" fill-rule="evenodd" d="M9.336209056846869,10.743845795753003 L15.497031420704923,17.070643181373917 L22.073051162110062,10.743845795753003 "/>
  </defs>
  <g opacity="1">
    <g opacity="1">
      <use xlink:href="#path-0" fill-opacity="0" stroke="rgb(74,19,74)" stroke-opacity="1" stroke-width="2" stroke-linecap="butt" stroke-linejoin="miter"/>
    </g>
    <g opacity="1">
      <use xlink:href="#path-1" fill-opacity="0" stroke="rgb(74,19,74)" stroke-opacity="1" stroke-width="2" stroke-linecap="butt" stroke-linejoin="miter"/>
    </g>
    <g opacity="1">
      <use xlink:href="#path-2" fill-opacity="0" stroke="rgb(74,19,74)" stroke-opacity="1" stroke-width="2" stroke-linecap="butt" stroke-linejoin="miter"/>
    </g>
  </g>
</svg>