{
    "getPayslipListDetails_Output": {
        "OutputParameters": {
            "Output": {
                "PayslipListBean": [
                    {
                        "EffectiveDate": "2019-03-31T00:00:00.000+02:00",
                        "PayslipChoice": "1119315 - Assignment 1",
                        "ActionContextId": "754205155",
                        "PersonId": "552706",
                        "Currency": "ZAR",
                        "NetPay": "19966.51"
                    },
                    {
                        "EffectiveDate": "2019-02-28T00:00:00.000+02:00",
                        "PayslipChoice": "1119315 - Assignment 1",
                        "ActionContextId": "722072210",
                        "PersonId": "552706",
                        "Currency": "ZAR",
                        "NetPay": "20086.59"
                    },
                    {
                        "EffectiveDate": "2019-01-31T00:00:00.000+02:00",
                        "PayslipChoice": "1119315 - Assignment 1",
                        "ActionContextId": "686368346",
                        "PersonId": "552706",
                        "Currency": "ZAR",
                        "NetPay": "19961.58"
                    },
                    {
                        "EffectiveDate": "2018-12-31T00:00:00.000+02:00",
                        "PayslipChoice": "1119315 - Assignment 1",
                        "ActionContextId": "640001719",
                        "PersonId": "552706",
                        "Currency": "ZAR",
                        "NetPay": "34134.04"
                    },
                    {
                        "EffectiveDate": "2018-11-30T00:00:00.000+02:00",
                        "PayslipChoice": "1119315 - Assignment 1",
                        "ActionContextId": "622790944",
                        "PersonId": "552706",
                        "Currency": "ZAR",
                        "NetPay": "19642.07"
                    },
                    {
                        "EffectiveDate": "2018-10-31T00:00:00.000+02:00",
                        "PayslipChoice": "1119315 - Assignment 1",
                        "ActionContextId": "588609291",
                        "PersonId": "552706",
                        "Currency": "ZAR",
                        "NetPay": "19642.07"
                    },
                    {
                        "EffectiveDate": "2018-09-30T00:00:00.000+02:00",
                        "PayslipChoice": "1119315 - Assignment 1",
                        "ActionContextId": "558892286",
                        "PersonId": "552706",
                        "Currency": "ZAR",
                        "NetPay": "19642.06"
                    },
                    {
                        "EffectiveDate": "2018-08-31T00:00:00.000+02:00",
                        "PayslipChoice": "1119315 - Assignment 1",
                        "ActionContextId": "530154060",
                        "PersonId": "552706",
                        "Currency": "ZAR",
                        "NetPay": "19692.08"
                    },
                    {
                        "EffectiveDate": "2018-07-31T00:00:00.000+02:00",
                        "PayslipChoice": "1119315 - Assignment 1",
                        "ActionContextId": "496963643",
                        "PersonId": "552706",
                        "Currency": "ZAR",
                        "NetPay": "19692.07"
                    },
                    {
                        "EffectiveDate": "2018-06-30T00:00:00.000+02:00",
                        "PayslipChoice": "1119315 - Assignment 1",
                        "ActionContextId": "470161947",
                        "PersonId": "552706",
                        "Currency": "ZAR",
                        "NetPay": "19807.07"
                    },
                    {
                        "EffectiveDate": "2018-05-31T00:00:00.000+02:00",
                        "PayslipChoice": "1119315 - Assignment 1",
                        "ActionContextId": "439402585",
                        "PersonId": "552706",
                        "Currency": "ZAR",
                        "NetPay": "19682.06"
                    },
                    {
                        "EffectiveDate": "2018-04-30T00:00:00.000+02:00",
                        "PayslipChoice": "1119315 - Assignment 1",
                        "ActionContextId": "409441686",
                        "PersonId": "552706",
                        "Currency": "ZAR",
                        "NetPay": "19682.08"
                    }
                ]
            },
            "ControlBean": {
                "fields": "",
                "filter": "",
                "limit": "",
                "offset": "",
                "sort": ""
            }
        }
    }
}
