<?xml version="1.0" encoding="utf-8"?>
<svg version="1.1" xmlns="http://www.w3.org/2000/svg" xmlns:xlink="http://www.w3.org/1999/xlink" height="6" width="22">
  <defs>
    <ellipse id="ellipse-0" opacity="1" rx="3" ry="3" cx="3" cy="3"/>
    <ellipse id="ellipse-1" opacity="1" rx="3" ry="3" cx="11" cy="3"/>
    <ellipse id="ellipse-2" opacity="1" rx="3" ry="3" cx="19" cy="3"/>
  </defs>
  <g opacity="1">
    <g opacity="1">
      <use xlink:href="#ellipse-0" fill="rgb(0,0,0)" fill-opacity="1"/>
    </g>
    <g opacity="1">
      <use xlink:href="#ellipse-1" fill="rgb(0,0,0)" fill-opacity="1"/>
    </g>
    <g opacity="1">
      <use xlink:href="#ellipse-2" fill="rgb(0,0,0)" fill-opacity="1"/>
    </g>
  </g>
</svg>