<?xml version="1.0" encoding="utf-8"?>
<svg version="1.1" xmlns="http://www.w3.org/2000/svg" xmlns:xlink="http://www.w3.org/1999/xlink" height="15.465118378753118" width="13.032874387761353">
  <defs>
    <path id="path-0" opacity="1" fill-rule="evenodd" d="M10.624723675388472,3.6511490935844733 C10.624723675388472,5.666273135001394 8.904347122080583,8.795950089089867 6.785325687618065,8.795950089089867 C4.666304253155547,8.795950089089867 2.9459276998476587,5.666273135001394 2.9459276998476582,3.6511490935844737 C2.9459276998476582,1.6360250521675532 4.6663042531555465,5.896130603689822e-16 6.785325687618064,0 C8.904347122080583,0 10.624723675388472,1.636025052167553 10.624723675388472,3.6511490935844733Z"/>
    <mask id="mask-1" maskUnits="userSpaceOnUse" maskContentUnits="userSpaceOnUse">
      <rect opacity="1" x="0" y="0" width="13.032874387761353" height="15.465118378753118" fill="black"/>
      <use xlink:href="#path-0" fill="white"/>
    </mask>
    <path id="path-2" opacity="1" fill-rule="evenodd" d="M8.864999597660358,2.157497191663535 C7.945243232715709,2.1926801434246666 6.305400939146756,4.395786168808633 4.865626693732854,2.6553811589705076 C3.4258524483189525,0.9149761491323842 3.265877532161852,2.574589373488968 3.265877532161852,2.574589373488968 C3.265877532161852,2.574589373488968 3.6162987770774047,0.20499604763950827 6.77008998131738,0.007529937152053208 C9.923881185557356,-0.18993617333540178 10.30477384307426,3.651149093584468 10.30477384307426,3.651149093584468 C10.30477384307426,3.651149093584468 9.784755962605008,2.1223142399024018 8.864999597660358,2.157497191663535Z"/>
    <path id="path-3" opacity="1" fill-rule="evenodd" d="M1.540935437619326,10.710338955038724 C2.060722944694672,9.727807940492664 3.081167389206473,9.113209474755422 4.192718668750748,9.113209474755422 L8.661035940449096,9.113209474755422 C9.718641122844911,9.113209474755422 10.69811156600382,9.670086142297293 11.239005627547355,10.578910842675437 L12.256876000711564,12.289163926754266 C13.090497302208512,13.6898367819892 12.081163221267893,15.465118378753113 10.451191159635716,15.465118378753113 L2.6185210566719306,15.465118378753111 C0.9880605542168392,15.465118378753111 -0.056750587735364566,13.730373199898441 0.7056910697502102,12.289163926754266 L1.540935437619326,10.710338955038724Z"/>
  </defs>
  <g opacity="1">
    <g opacity="1">
      <g opacity="1">
        <use xlink:href="#path-0" fill-opacity="0" stroke="rgb(225,225,225)" stroke-opacity="1" stroke-width="2" stroke-linecap="butt" stroke-linejoin="miter" mask="url(#mask-1)"/>
      </g>
      <g opacity="1">
        <use xlink:href="#path-2" fill="rgb(225,225,225)" fill-opacity="1"/>
      </g>
    </g>
    <g opacity="1">
      <use xlink:href="#path-3" fill="rgb(225,225,225)" fill-opacity="1"/>
    </g>
  </g>
</svg>