<?xml version="1.0" encoding="utf-8"?>
<svg version="1.1" xmlns="http://www.w3.org/2000/svg" xmlns:xlink="http://www.w3.org/1999/xlink" height="18.70463010947845" width="23.7046301094785">
  <defs>
    <ellipse id="ellipse-0" opacity="1" rx="3.352941176470588" ry="2.6923076923076916" cx="11.777317657450148" cy="9.352315054739298"/>
    <path id="path-1" opacity="1" fill-rule="evenodd" d="M21.352315054739307,9.681471220062573 C21.352315054739307,9.681471220062573 12.07958110158744,-1.087759549168216 2.352315054739222,9.681471220062573 "/>
    <path id="path-2" opacity="1" fill-rule="evenodd" d="M2.352315054739222,9.681471220063267 C2.352315054739222,9.681471220063267 12.597363039384375,18.29685583544714 21.352315054739336,9.681471220062527 "/>
    <path id="path-3" opacity="1" fill-rule="evenodd" d="M4.352315054739222,3.3476488670102924 L18.820301693068302,16.352315054739226 L19.999373878268628,15.386303626790294 L5.670278642163651,2.352315054739229 L4.352315054739222,3.3476488670102924Z"/>
  </defs>
  <g opacity="1">
    <g opacity="1">
      <use xlink:href="#ellipse-0" fill-opacity="0" stroke="rgb(0,0,0)" stroke-opacity="1" stroke-width="1"/>
    </g>
    <g opacity="1">
      <use xlink:href="#path-1" fill-opacity="0" stroke="rgb(0,0,0)" stroke-opacity="1" stroke-width="1"/>
    </g>
    <g opacity="1">
      <use xlink:href="#path-2" fill-opacity="0" stroke="rgb(0,0,0)" stroke-opacity="1" stroke-width="1"/>
    </g>
    <g opacity="1">
      <use xlink:href="#path-3" fill="rgb(0,0,0)" fill-opacity="1"/>
      <use xlink:href="#path-3" fill-opacity="0" stroke="rgb(247,247,247)" stroke-opacity="1" stroke-width="1"/>
    </g>
  </g>
</svg>