<?xml version="1.0" encoding="utf-8"?>
<svg version="1.1" xmlns="http://www.w3.org/2000/svg" xmlns:xlink="http://www.w3.org/1999/xlink" height="23.409260218956888" width="26.409260218956888">
  <defs>
    <path id="path-0" opacity="1" fill-rule="evenodd" d="M13.231438703998492,4.704630109478444 L13.231438703998492,10.260185665034 "/>
    <path id="path-1" opacity="1" fill-rule="evenodd" d="M4.704630109478444,10.704630109478444 L4.704630109478444,18.704630109478444 L21.704630109478437,18.704630109478444 L21.704630109478437,10.704630109478444 "/>
    <path id="path-2" opacity="1" fill-rule="evenodd" d="M8.283577477899485,9.37129677614513 L13.044212940880703,14.260185665034019 L18.125682741057396,9.37129677614513 "/>
  </defs>
  <g opacity="1">
    <g opacity="1">
      <use xlink:href="#path-0" fill-opacity="0" stroke="rgb(225,225,225)" stroke-opacity="1" stroke-width="2" stroke-linecap="butt" stroke-linejoin="miter"/>
    </g>
    <g opacity="1">
      <use xlink:href="#path-1" fill-opacity="0" stroke="rgb(225,225,225)" stroke-opacity="1" stroke-width="2" stroke-linecap="butt" stroke-linejoin="miter"/>
    </g>
    <g opacity="1">
      <use xlink:href="#path-2" fill-opacity="0" stroke="rgb(225,225,225)" stroke-opacity="1" stroke-width="2" stroke-linecap="butt" stroke-linejoin="miter"/>
    </g>
  </g>
</svg>