<?xml version="1.0" encoding="utf-8"?>
<svg version="1.1" xmlns="http://www.w3.org/2000/svg" xmlns:xlink="http://www.w3.org/1999/xlink" height="21.726696897336687" width="21.073151288520194">
  <defs>
    <ellipse id="ellipse-0" opacity="1" rx="2.1578729841669873" ry="3.6657608545795113" cx="10.53657564426" cy="10.863348448668235"/>
    <mask id="mask-1" maskUnits="userSpaceOnUse" maskContentUnits="userSpaceOnUse">
      <rect opacity="1" x="0" y="0" width="21.073151288520194" height="21.726696897336687" fill="black"/>
      <use xlink:href="#ellipse-0" fill="white"/>
    </mask>
    <ellipse id="ellipse-2" opacity="1" rx="3.9864560356940193" ry="6.641345285489162" cx="10.536575644260054" cy="10.863348448668237"/>
    <mask id="mask-3" maskUnits="userSpaceOnUse" maskContentUnits="userSpaceOnUse">
      <rect opacity="1" x="0" y="0" width="21.073151288520194" height="21.726696897336687" fill="black"/>
      <use xlink:href="#ellipse-2" fill="white"/>
    </mask>
    <ellipse id="ellipse-4" opacity="1" rx="6.269339845102518" ry="8.920493499697601" cx="10.536575644260108" cy="10.863348448668342"/>
    <mask id="mask-5" maskUnits="userSpaceOnUse" maskContentUnits="userSpaceOnUse">
      <rect opacity="1" x="0" y="0" width="21.073151288520194" height="21.726696897336687" fill="black"/>
      <use xlink:href="#ellipse-4" fill="white"/>
    </mask>
  </defs>
  <g opacity="1">
    <g transform="translate(10.53657564426, 10.863348448668235) rotate(40.00001430256668) translate(-10.53657564426, -10.863348448668235)" opacity="1">
      <use xlink:href="#ellipse-0" fill-opacity="0" stroke="rgb(0,0,0)" stroke-opacity="1" stroke-width="2" stroke-linecap="butt" stroke-linejoin="miter" mask="url(#mask-1)"/>
    </g>
    <g transform="translate(10.536575644260054, 10.863348448668237) rotate(40.00001430256668) translate(-10.536575644260054, -10.863348448668237)" opacity="1">
      <use xlink:href="#ellipse-2" fill-opacity="0" stroke="rgb(0,0,0)" stroke-opacity="1" stroke-width="2" stroke-linecap="butt" stroke-linejoin="miter" mask="url(#mask-3)"/>
    </g>
    <g transform="translate(10.536575644260108, 10.863348448668342) rotate(40.00001430256668) translate(-10.536575644260108, -10.863348448668342)" opacity="1">
      <use xlink:href="#ellipse-4" fill-opacity="0" stroke="rgb(0,0,0)" stroke-opacity="1" stroke-width="2" stroke-linecap="butt" stroke-linejoin="miter" mask="url(#mask-5)"/>
    </g>
  </g>
</svg>