<?xml version="1.0" encoding="utf-8"?>
<svg version="1.1" xmlns="http://www.w3.org/2000/svg" xmlns:xlink="http://www.w3.org/1999/xlink" height="34.00001581395341" width="34">
  <defs>
    <rect id="rect-0" opacity="1" x="7.95745116316931" y="9.404263184067304" width="18.72503220721319" height="15.010638297872276" rx="0" ry="0"/>
    <path id="path-1" opacity="1" fill-rule="evenodd" d="M7.957451163169336,12.404263184067297 C7.95745116316934,10.747408934574919 9.300596913676959,9.404263184067304 10.957451163169337,9.404263184067304 L24.682483370382506,9.404263184067304 C25.787052870044093,9.404263184067304 26.682483370382506,10.299693684405717 26.682483370382506,11.404263184067304 L26.682483370382506,17.7599586537445 C26.682483370382506,19.969097653067674 24.89162236970568,21.759958653744505 22.682483370382506,21.759958653744505 L13.223866471448044,21.759958653744505 L7.95745116316931,24.414901481939587 L7.957451163169336,12.404263184067297Z"/>
    <ellipse id="ellipse-2" opacity="1" rx="17" ry="17.000007906976705" cx="17" cy="17.000007906976705"/>
    <mask id="mask-3" maskUnits="userSpaceOnUse" maskContentUnits="userSpaceOnUse">
      <rect opacity="1" x="0" y="0" width="34" height="34.00001581395341" fill="black"/>
      <use xlink:href="#ellipse-2" fill="white"/>
    </mask>
  </defs>
  <g opacity="1">
    <g opacity="1">
      <g opacity="1">
        <g opacity="1">
          <use xlink:href="#path-1" fill-opacity="0" stroke="rgb(0,0,0)" stroke-opacity="1" stroke-width="1" stroke-linecap="butt" stroke-linejoin="miter"/>
        </g>
      </g>
    </g>
    <g opacity="1">
      <use xlink:href="#ellipse-2" fill-opacity="0" stroke="rgb(0,0,0)" stroke-opacity="1" stroke-width="2" stroke-linecap="butt" stroke-linejoin="miter" mask="url(#mask-3)"/>
    </g>
  </g>
</svg>