<?xml version="1.0" encoding="utf-8"?>
<svg version="1.1" xmlns="http://www.w3.org/2000/svg" xmlns:xlink="http://www.w3.org/1999/xlink" height="15.465118378753132" width="13.032874387761353">
  <defs>
    <path id="path-0" opacity="1" fill-rule="evenodd" d="M10.624723675388472,3.6511490935844804 C10.624723675388472,5.6662731350014015 8.904347122080583,8.795950089089875 6.785325687618065,8.795950089089875 C4.666304253155547,8.795950089089875 2.9459276998476587,5.6662731350014015 2.9459276998476582,3.651149093584481 C2.9459276998476582,1.6360250521675603 4.6663042531555465,7.695040417969984e-15 6.785325687618064,7.105427357601002e-15 C8.904347122080583,7.105427357601002e-15 10.624723675388472,1.6360250521675601 10.624723675388472,3.6511490935844804Z"/>
    <mask id="mask-1" maskUnits="userSpaceOnUse" maskContentUnits="userSpaceOnUse">
      <rect opacity="1" x="0" y="0" width="13.032874387761353" height="15.465118378753132" fill="black"/>
      <use xlink:href="#path-0" fill="white"/>
    </mask>
    <path id="path-2" opacity="1" fill-rule="evenodd" d="M8.864999597660358,2.157497191663542 C7.945243232715709,2.1926801434246737 6.305400939146756,4.39578616880864 4.865626693732854,2.6553811589705147 C3.4258524483189525,0.9149761491323913 3.265877532161852,2.5745893734889753 3.265877532161852,2.5745893734889753 C3.265877532161852,2.5745893734889753 3.6162987770774047,0.20499604763951537 6.77008998131738,0.0075299371520603136 C9.923881185557356,-0.18993617333539467 10.30477384307426,3.651149093584475 10.30477384307426,3.651149093584475 C10.30477384307426,3.651149093584475 9.784755962605008,2.122314239902409 8.864999597660358,2.157497191663542Z"/>
    <path id="path-3" opacity="1" fill-rule="evenodd" d="M1.540935437619326,10.710338955038752 C2.060722944694672,9.727807940492692 3.081167389206473,9.11320947475545 4.192718668750748,9.11320947475545 L8.661035940449096,9.11320947475545 C9.718641122844911,9.11320947475545 10.69811156600382,9.670086142297322 11.239005627547355,10.578910842675466 L12.256876000711564,12.289163926754295 C13.090497302208512,13.689836781989229 12.081163221267893,15.465118378753141 10.451191159635716,15.465118378753141 L2.6185210566719306,15.46511837875314 C0.9880605542168392,15.46511837875314 -0.056750587735364566,13.73037319989847 0.7056910697502102,12.289163926754295 L1.540935437619326,10.710338955038752Z"/>
  </defs>
  <g opacity="1">
    <g opacity="1">
      <g opacity="1">
        <use xlink:href="#path-0" fill-opacity="0" stroke="rgb(0,0,0)" stroke-opacity="1" stroke-width="2" stroke-linecap="butt" stroke-linejoin="miter" mask="url(#mask-1)"/>
      </g>
      <g opacity="1">
        <use xlink:href="#path-2" fill="rgb(0,0,0)" fill-opacity="1"/>
      </g>
    </g>
    <g opacity="1">
      <use xlink:href="#path-3" fill="rgb(0,0,0)" fill-opacity="1"/>
    </g>
  </g>
</svg>