{
    "getPersonDirectoryDetails_Output": {
        "OutputParameters": {
            "Output": {
                "PersonDataBean": [
                    {
                        "PersonId": 546749,
                        "Language": "US",
                        "LastName": "Adams Alexander",
                        "FirstName": "Hayley",
                        "PersonImage": "data:image/gif;base64,/9j/4AAQSkZJRgABAQEA+gD6AAD/2wBDAAgGBgcGBQgHBwcJCQgKDBQNDAsLDBkS\r\nEw8UHRofHh0aHBwgJC4nICIsIxwcKDcpLDAxNDQ0Hyc5PTgyPC4zNDL/2wBDAQkJ\r\nCQwLDBgNDRgyIRwhMjIyMjIyMjIyMjIyMjIyMjIyMjIyMjIyMjIyMjIyMjIyMjIy\r\nMjIyMjIyMjIyMjIyMjL/wAARCABQAFADASIAAhEBAxEB/8QAHwAAAQUBAQEBAQEA\r\nAAAAAAAAAAECAwQFBgcICQoL/8QAtRAAAgEDAwIEAwUFBAQAAAF9AQIDAAQRBRIh\r\nMUEGE1FhByJxFDKBkaEII0KxwRVS0fAkM2JyggkKFhcYGRolJicoKSo0NTY3ODk6\r\nQ0RFRkdISUpTVFVWV1hZWmNkZWZnaGlqc3R1dnd4eXqDhIWGh4iJipKTlJWWl5iZ\r\nmqKjpKWmp6ipqrKztLW2t7i5usLDxMXGx8jJytLT1NXW19jZ2uHi4+Tl5ufo6erx\r\n8vP09fb3+Pn6/8QAHwEAAwEBAQEBAQEBAQAAAAAAAAECAwQFBgcICQoL/8QAtREA\r\nAgECBAQDBAcFBAQAAQJ3AAECAxEEBSExBhJBUQdhcRMiMoEIFEKRobHBCSMzUvAV\r\nYnLRChYkNOEl8RcYGRomJygpKjU2Nzg5OkNERUZHSElKU1RVVldYWVpjZGVmZ2hp\r\nanN0dXZ3eHl6goOEhYaHiImKkpOUlZaXmJmaoqOkpaanqKmqsrO0tba3uLm6wsPE\r\nxcbHyMnK0tPU1dbX2Nna4uPk5ebn6Onq8vP09fb3+Pn6/9oADAMBAAIRAxEAPwDg\r\ndVUrcrllYgAEqcg/Q1ctZv8ARsZ7VmTZ8mINyQuKsW74jxXjte7Y7luVrs5c1nzT\r\npAMseewq5eyrGjOegrCiR7ybcRuZjwtdVGN1qYzetkTLqbbjmMBe3NTrqR6iLco6\r\nkNW3p/gua4USTSEZH3UXpU974MEKFoXdTjPIyKtzpXsaLDVrXsZUF3HMuVyD3Bqc\r\nSc1kiJracg8Mpwa0kwQD60pxtqtjOLd7PctJLg1ciYHvWetWIW2tWRZT87z4Q+0L\r\n7CnxNhapWj5tz7NVhW4qGraAmZ2tSnaieprY8JaczyGaSIsMZHt+dc/qMnm36Rjo\r\nuAa9Q0rw5BqGnxxuegBAzgVtN8sEu5phoc83LsdDo89nuFu5ZZP7rL1+h6VLqpso\r\n12mZFZhwD3rHh0uPTLuKKE/NkEqpzim3unyapqE6CWRHGCNhwVrm0vY9L3kr9Tg/\r\nEcEcGoll6OM9MVUtX3R49K1/F2l3mmQx/a7lplLfIWOSBWFpzfKR+Ndi1pnlVlar\r\nqaC1KvWolqRTWIGPZH92w96nklEUbOTwBWvfeGJ9LbYJVJYZBxlWHqCOornNRgu1\r\nG2QYT1UcGu2eArxd5R0OSGLpTXusqKwbMx+8xr1Lw3epe6UkkEpSXbgrnqwrydRg\r\nD611XhnzlEhtnw4+bb2NY14Xj6HXhKjjO3c9D0qX7TcOZXjinQHO+UoePTtUD3kg\r\n1grA6yyc73WTcAPrUFvrVkyf6ZFIkwHPHesDX/EH2eEiwhKhjgyMMVyKPNoj0pVO\r\nVczZW8b6hJfzLA8yFYjkgetc1Zyr9r2rwCOKz5Z5JpGZ2LEnJJ70sDmK4jYAk13x\r\np2hyo8epV558x0ympFNNtLe5utohgZ2I4VeTSK4JIHUcEHqKynRqQ+JFQqQlomdt\r\ndxlrMqoZYVkw8LjL27e3qDXP6pYRNazNDcRtsTcwfCMPwPWt+aW6s7iNN5kTYfLn\r\nAOWTuD9P0NZniq5U6S6rex3Zb5QJYyrL7g96+zqytTbPlKDkpqJ5nu5Arf8ADc7R\r\n6taAHCyMYzn36VzzjDt7GrthdfZ3XdlSGDK3oe1fJ1FeLR9PSlyzTPYWsmMZJQdO\r\nTiuL8VWMhhRzwit0Fd7p99BfabFOjZDryPQ96y9eFrJYyxhQxIPH4V5kG4yPcqRU\r\n6bPKHhjUttIOOtQ9FWVvuk4FXrbT5JrSZlVzIpPAGazp8qignoPyr2HCUUm+p8/d\r\nNtLodv4TvWDNbRsrXEy7Inzwi87ifwrb1KwgngDwrk8RW4VQDMR1Yn65rz3Rbjy5\r\njGxYI4x8nU9wPzr0K3uJjpzXr/JMUMduo6RjuR+uK9ajiKboN1dkeXVw9T269luz\r\nQ1W48ieIeY0eXyGVdxU+oHesfX7O71vTwkE9rdShsqrKIpB+eK0dRbdqsOYzIqhi\r\nVVsN06j3FXIFa7jwsdrqS+jHy5h/LP61nladTC8snoa5w408XzQVjzGDwpq0kskU\r\ntjcwMo5YxkqfxFaMfhgy25hkmjVwMp2P05613ZSK2bmLVLM+incP6Vk6rZ2l3EUS\r\nSaXdklnjwVPrW88thKk4xevRmNDMZKonNaGHoFzf6LcS2E6FoXGVOfun1rdKTXCM\r\nypnPUseK464iktJzFMG3LyDuPI9RVuxsZr0hpXkFv7sTurwI4CpUq8i3Pof7QjTp\r\nX6FyOyktorjy2kLODxB8xPsK4u4t5oZCk0To2ejDBr1izFrBCvl3NxA5XayQR5/X\r\nNZ974WttQkeeKzuQTy1xcSbR/hXvYjAt04xj0Pn6eOSqSlJaM4LS4TJqKRoCdwwQ\r\nK9IkjaKzVX5IUD8qpaNptlY3xih2ybEyZcfeOe3txWrqWPKyBXzWMc4T9k3sfUZf\r\nCE4Kslqz/9k=",
                        "WorkPhone": "0219387805",
                        "EmailAddress": "hcmtesting@tfg.co.za",
                        "Location": "TFG The Rock Building",
                        "Organization": "3070013 - HRIM Systems",
                        "Directs": "4",
                        "Total": "4",
                        "SupervisorId": "561222",
                        "SupervisorLastName": "Samuels",
                        "SupervisorFirstName": "Amanda Tracey",
                        "Tags": "",
                        "Address": "36 Jenkinson Street, Parow East, 7500, Western Cape, South Africa",
                        "Notes": "",
                        "BusinessGroupId": "107",
                        "PartyId": "600941",
                        "LocalTime": "10:16, Monday   ",
                        "Sm1id": "",
                        "Sm1url": "",
                        "Sm2id": "",
                        "Sm2url": "",
                        "Sm3id": "",
                        "Sm3url": "",
                        "LocationAddress": "36 Jenkinson Street, Parow East, 7500, Western Cape, South Africa"
                    }
                ]
            },
            "ControlBean": {
                "fields": "",
                "filter": "",
                "limit": "",
                "offset": "",
                "sort": ""
            }
        }
    }
}